# BEGIN PLOT
DrawOnly=/afs/cern.ch/work/s/sthenkel/work/MCGenerators/RIVET/RivetAnalyses/routines/MC_TTbar_TruthSel/Output_test.yoda/MC_TTbar_TruthSel/elec_N
Title=number of electrons
LogY=0
RatioPlotYMax=1.27
NormalizeToSum=1
LegendXPos=0.57
XLabel=number of electrons
XMax=3.5
YLabel=bin sum.
XMin=-0.5
RatioPlotErrorBandColor=yellow
LegendYPos=0.93
Legend=1
RatioPlotYMin=0.73
# END PLOT

# BEGIN HISTOGRAM /afs/cern.ch/work/s/sthenkel/work/MCGenerators/RIVET/RivetAnalyses/routines/MC_TTbar_TruthSel/Output_test.yoda/MC_TTbar_TruthSel/elec_N
LineColor={[HTML]{EE3311}}
LineStyle=solid
LineWidth=0.06
Path=/afs/cern.ch/work/s/sthenkel/work/MCGenerators/RIVET/RivetAnalyses/routines/MC_TTbar_TruthSel/Output_test.yoda/MC_TTbar_TruthSel/elec_N
ScaledBy=1
Title=TestPlot
XLabel=
YLabel=
# xlow	 xhigh	 val	 errminus	 errplus
-5.000000e-01	5.000000e-01	6.720000e+02	2.592296e+01	2.592296e+01
5.000000e-01	1.500000e+00	6.910000e+02	2.628688e+01	2.628688e+01
1.500000e+00	2.500000e+00	0.000000e+00	0.000000e+00	0.000000e+00
2.500000e+00	3.500000e+00	0.000000e+00	0.000000e+00	0.000000e+00
3.500000e+00	4.500000e+00	0.000000e+00	0.000000e+00	0.000000e+00
4.500000e+00	5.500000e+00	0.000000e+00	0.000000e+00	0.000000e+00
5.500000e+00	6.500000e+00	0.000000e+00	0.000000e+00	0.000000e+00
6.500000e+00	7.500000e+00	0.000000e+00	0.000000e+00	0.000000e+00
7.500000e+00	8.500000e+00	0.000000e+00	0.000000e+00	0.000000e+00
8.500000e+00	9.500000e+00	0.000000e+00	0.000000e+00	0.000000e+00
9.500000e+00	1.050000e+01	0.000000e+00	0.000000e+00	0.000000e+00
# END HISTOGRAM

