# BEGIN PLOT
DrawOnly=/afs/cern.ch/work/s/sthenkel/work/MCGenerators/RIVET/RivetAnalyses/routines/MC_TTbar_TruthSel/Output_test.yoda/MC_TTbar_TruthSel/jet_2_pT
Title= 2nd leading jet pt
LogY=1
RatioPlotYMax=1.27
NormalizeToSum=1
LegendXPos=0.57
XLabel=second leading jet pt[GeV]
XMax=350
YLabel=bin sum.
XMin=0
RatioPlotErrorBandColor=yellow
LegendYPos=0.93
Legend=1
RatioPlotYMin=0.73
# END PLOT

# BEGIN HISTOGRAM /afs/cern.ch/work/s/sthenkel/work/MCGenerators/RIVET/RivetAnalyses/routines/MC_TTbar_TruthSel/Output_test.yoda/MC_TTbar_TruthSel/jet_2_pT
LineColor={[HTML]{EE3311}}
LineStyle=solid
LineWidth=0.06
Path=/afs/cern.ch/work/s/sthenkel/work/MCGenerators/RIVET/RivetAnalyses/routines/MC_TTbar_TruthSel/Output_test.yoda/MC_TTbar_TruthSel/jet_2_pT
ScaledBy=1
Title=TestPlot
XLabel=
YLabel=
# xlow	 xhigh	 val	 errminus	 errplus
0.000000e+00	5.000000e+01	1.000000e+00	1.414214e-01	1.414214e-01
5.000000e+01	1.000000e+02	4.500000e+00	3.000000e-01	3.000000e-01
1.000000e+02	1.500000e+02	1.420000e+00	1.685230e-01	1.685230e-01
1.500000e+02	2.000000e+02	3.400000e-01	8.246211e-02	8.246211e-02
2.000000e+02	2.500000e+02	1.000000e-01	4.472136e-02	4.472136e-02
2.500000e+02	3.500000e+02	1.000000e-02	1.000000e-02	1.000000e-02
3.500000e+02	8.000000e+02	6.666667e-03	3.849002e-03	3.849002e-03
8.000000e+02	1.500000e+03	0.000000e+00	0.000000e+00	0.000000e+00
# END HISTOGRAM

